tb_mips16.vcd
$date
	Wed Sep 18 10:10:17 2024
$end
$version
	Icarus Verilog
$end
$timescale
	100fs
$end
$scope module tb_mips16 $end
$var wire 16 ! pc_out [15:0] $end
$var wire 16 " alu_result [15:0] $end
$var reg 1 # clk $end
$var reg 1 $ reset $end
$scope module uut $end
$var wire 16 % PC_jr [15:0] $end
$var wire 16 & alu_result [15:0] $end
$var wire 1 ' beq_control $end
$var wire 1 # clk $end
$var wire 16 ( pc_out [15:0] $end
$var wire 1 $ reset $end
$var wire 1 ) zero_flag $end
$var wire 16 * zero_ext_im [15:0] $end
$var wire 1 + sign_or_zero $end
$var wire 16 , sign_ext_im [15:0] $end
$var wire 3 - reg_write_dest [2:0] $end
$var wire 16 . reg_write_data [15:0] $end
$var wire 1 / reg_write $end
$var wire 16 0 reg_read_data_2 [15:0] $end
$var wire 16 1 reg_read_data_1 [15:0] $end
$var wire 3 2 reg_read_addr_2 [2:0] $end
$var wire 3 3 reg_read_addr_1 [2:0] $end
$var wire 2 4 reg_dst [1:0] $end
$var wire 16 5 read_data2 [15:0] $end
$var wire 16 6 pc_next [15:0] $end
$var wire 16 7 pc2 [15:0] $end
$var wire 16 8 no_sign_ext [15:0] $end
$var wire 1 9 mem_write $end
$var wire 2 : mem_to_reg [1:0] $end
$var wire 16 ; mem_read_data [15:0] $end
$var wire 1 < mem_read $end
$var wire 15 = jump_shift_1 [14:0] $end
$var wire 1 > jump $end
$var wire 16 ? instr [15:0] $end
$var wire 16 @ imm_ext [15:0] $end
$var wire 16 A im_shift_1 [15:0] $end
$var wire 1 B branch $end
$var wire 1 C alu_src $end
$var wire 2 D alu_op [1:0] $end
$var wire 16 E PC_j [15:0] $end
$var wire 16 F PC_beq [15:0] $end
$var wire 16 G PC_4beqj [15:0] $end
$var wire 16 H PC_4beq [15:0] $end
$var wire 1 I JRControl $end
$var wire 16 J ALU_out [15:0] $end
$var wire 3 K ALU_Control [2:0] $end
$var reg 16 L pc_current [15:0] $end
$scope module ALU_Control_unit $end
$var wire 4 M Function [3:0] $end
$var wire 2 N ALUOp [1:0] $end
$var wire 6 O ALUControlIn [5:0] $end
$var reg 3 P ALU_Control [2:0] $end
$upscope $end
$scope module JRControl_unit $end
$var wire 4 Q funct [3:0] $end
$var wire 2 R alu_op [1:0] $end
$var wire 1 I JRControl $end
$upscope $end
$scope module alu_unit $end
$var wire 3 S alu_control [2:0] $end
$var wire 16 T b [15:0] $end
$var wire 1 ) zero $end
$var wire 16 U a [15:0] $end
$var reg 16 V result [15:0] $end
$upscope $end
$scope module control_unit $end
$var wire 3 W opcode [2:0] $end
$var wire 1 $ reset $end
$var reg 2 X alu_op [1:0] $end
$var reg 1 C alu_src $end
$var reg 1 B branch $end
$var reg 1 > jump $end
$var reg 1 < mem_read $end
$var reg 2 Y mem_to_reg [1:0] $end
$var reg 1 9 mem_write $end
$var reg 2 Z reg_dst [1:0] $end
$var reg 1 / reg_write $end
$var reg 1 + sign_or_zero $end
$upscope $end
$scope module datamem $end
$var wire 1 # clk $end
$var wire 16 [ mem_access_addr [15:0] $end
$var wire 1 < mem_read $end
$var wire 1 9 mem_write_en $end
$var wire 8 \ ram_addr [7:0] $end
$var wire 16 ] mem_write_data [15:0] $end
$var wire 16 ^ mem_read_data [15:0] $end
$var integer 32 _ i [31:0] $end
$upscope $end
$scope module instrucion_memory $end
$var wire 16 ` pc [15:0] $end
$var wire 4 a rom_addr [3:0] $end
$var wire 16 b instruction [15:0] $end
$upscope $end
$scope module reg_file $end
$var wire 1 # clk $end
$var wire 3 c reg_read_addr_1 [2:0] $end
$var wire 3 d reg_read_addr_2 [2:0] $end
$var wire 16 e reg_write_data [15:0] $end
$var wire 3 f reg_write_dest [2:0] $end
$var wire 1 / reg_write_en $end
$var wire 1 $ rst $end
$var wire 16 g reg_read_data_2 [15:0] $end
$var wire 16 h reg_read_data_1 [15:0] $end
$upscope $end
$upscope $end
$upscope $end
$enddefinitions $end
$comment Show the parameter values. $end
$dumpall
$end
#0
$dumpvars
b0 h
b0 g
b11 f
b0 e
b11 d
b0 c
b1000000110000000 b
b0 a
b0 `
b100000000 _
b0 ^
b0 ]
b0 \
b0 [
b0 Z
b0 Y
b0 X
b100 W
b0 V
b0 U
b0 T
b0 S
b0 R
b0 Q
b0 P
b0 O
b0 N
b0 M
b0 L
b0 K
b0 J
0I
b10 H
b10 G
b10 F
b1100000000 E
b0 D
0C
0B
b0 A
b0 @
b1000000110000000 ?
0>
b1100000000 =
0<
b0 ;
b0 :
09
b0 8
b10 7
b10 6
b0 5
b0 4
b0 3
b11 2
b0 1
b0 0
0/
b0 .
b11 -
b0 ,
1+
b0 *
1)
b0 (
0'
b0 &
b0 %
1$
0#
b0 "
b0 !
$end
#100000
1#
#200000
0#
#300000
1#
#400000
0#
#500000
1#
#600000
0#
#700000
1#
#800000
0#
#900000
1#
#1000000
1/
1C
1<
b110000 O
b11 D
b11 N
b11 R
b11 X
b1 :
b1 Y
0#
0$
#1100000
b1 .
b1 e
0)
b1111111110011100 8
b1 "
b1 &
b1 J
b1 V
b1 [
b110010 5
b110010 T
b1100100 A
b1 -
b1 f
b100 K
b100 P
b100 S
b110010 @
0+
0<
b10 D
b10 N
b10 R
b10 X
b0 :
b0 Y
b100 6
b100010 O
b10 M
b10 Q
b110010 *
b110010 ,
b1 2
b1 d
b11 3
b11 c
b1 W
b101100101100100 E
b101100101100100 =
b100 G
b10110010110010 ?
b10110010110010 b
b1101000 F
b100 H
b1 a
b100 7
b10 !
b10 (
b10 L
b10 `
1#
#1200000
0#
#1300000
1'
b0 .
b0 e
1)
b110010 8
b0 "
b0 &
b0 J
b0 V
b0 [
b0 5
b0 T
b1111111111001110 A
b0 -
b0 f
b1 K
b1 P
b1 S
b1111111111100111 @
1+
0/
0C
1B
b1 D
b1 N
b1 R
b1 X
b1111111111010100 6
b10111 O
b111 M
b111 Q
b1100111 *
b1111111111100111 ,
b0 2
b0 d
b111 3
b111 c
b110 W
b11100011001110 E
b11100011001110 =
b1111111111010100 G
b1101110001100111 ?
b1101110001100111 b
b1111111111010100 F
b1111111111010100 H
b10 a
b0 0
b0 ]
b0 g
b110 7
b100 !
b100 (
b100 L
b100 `
1#
#1400000
0#
#1500000
b0 8
b1111111111010110 6
b0 A
0'
b1111111111010110 G
b0 K
b0 P
b0 S
b0 @
1/
0B
b0 D
b0 N
b0 R
b0 X
b1 4
b1 Z
b1111111111010110 H
b0 O
b0 M
b0 Q
b0 *
b0 ,
b0 3
b0 c
b0 W
b0 =
b1111111111010110 F
b1000000000000000 E
b1010 a
b0 ?
b0 b
b1111111111010110 7
b1111111111010100 !
b1111111111010100 (
b1111111111010100 L
b1111111111010100 `
1#
#1600000
0#
#1700000
b1111111111011000 6
b1111111111011000 G
b1111111111011000 F
b1111111111011000 H
b1011 a
b1111111111011000 7
b1111111111010110 !
b1111111111010110 (
b1111111111010110 L
b1111111111010110 `
1#
#1800000
0#
#1900000
b1111111111011010 6
b1111111111011010 G
b1111111111011010 F
b1111111111011010 H
b1100 a
b1111111111011010 7
b1111111111011000 !
b1111111111011000 (
b1111111111011000 L
b1111111111011000 `
1#
#2000000
0#
#2100000
b1111111111011100 6
b1111111111011100 G
b1111111111011100 F
b1111111111011100 H
b1101 a
b1111111111011100 7
b1111111111011010 !
b1111111111011010 (
b1111111111011010 L
b1111111111011010 `
1#
#2200000
0#
#2300000
b1111111111011110 6
b1111111111011110 G
b1111111111011110 F
b1111111111011110 H
b1110 a
b1111111111011110 7
b1111111111011100 !
b1111111111011100 (
b1111111111011100 L
b1111111111011100 `
1#
#2400000
0#
#2500000
b1111111111100000 6
b1111111111100000 G
b1111111111100000 F
b1111111111100000 H
b1111 a
b1111111111100000 7
b1111111111011110 !
b1111111111011110 (
b1111111111011110 L
b1111111111011110 `
1#
#2600000
0#
#2700000
b1111111111100010 6
b1111111111100010 G
b1111111111100010 F
b1111111111100010 H
b0 a
b1111111111100010 7
b1111111111100000 !
b1111111111100000 (
b1111111111100000 L
b1111111111100000 `
1#
#2800000
0#
#2900000
b1111111111100100 6
b1111111111100100 G
b1111111111100100 F
b1111111111100100 H
b1 a
b1111111111100100 7
b1111111111100010 !
b1111111111100010 (
b1111111111100010 L
b1111111111100010 `
1#
#3000000
0#
#3100000
b1111111111100110 6
b1111111111100110 G
b1111111111100110 F
b1111111111100110 H
b10 a
b1111111111100110 7
b1111111111100100 !
b1111111111100100 (
b1111111111100100 L
b1111111111100100 `
1#
#3200000
0#
#3300000
b1111111111101000 6
b1111111111101000 G
b1111111111101000 F
b1111111111101000 H
b11 a
b1111111111101000 7
b1111111111100110 !
b1111111111100110 (
b1111111111100110 L
b1111111111100110 `
1#
#3400000
0#
#3500000
b1111111111101010 6
b1111111111101010 G
b1111111111101010 F
b1111111111101010 H
b100 a
b1111111111101010 7
b1111111111101000 !
b1111111111101000 (
b1111111111101000 L
b1111111111101000 `
1#
#3600000
0#
#3700000
b1111111111101100 6
b1111111111101100 G
b1111111111101100 F
b1111111111101100 H
b101 a
b1111111111101100 7
b1111111111101010 !
b1111111111101010 (
b1111111111101010 L
b1111111111101010 `
1#
#3800000
0#
#3900000
b1111111111101110 6
b1111111111101110 G
b1111111111101110 F
b1111111111101110 H
b110 a
b1111111111101110 7
b1111111111101100 !
b1111111111101100 (
b1111111111101100 L
b1111111111101100 `
1#
#4000000
0#
#4100000
b1111111111110000 6
b1111111111110000 G
b1111111111110000 F
b1111111111110000 H
b111 a
b1111111111110000 7
b1111111111101110 !
b1111111111101110 (
b1111111111101110 L
b1111111111101110 `
1#
#4200000
0#
#4300000
b1111111111110010 6
b1111111111110010 G
b1111111111110010 F
b1111111111110010 H
b1000 a
b1111111111110010 7
b1111111111110000 !
b1111111111110000 (
b1111111111110000 L
b1111111111110000 `
1#
#4400000
0#
#4500000
b1111111111110100 6
b1111111111110100 G
b1111111111110100 F
b1111111111110100 H
b1001 a
b1111111111110100 7
b1111111111110010 !
b1111111111110010 (
b1111111111110010 L
b1111111111110010 `
1#
#4600000
0#
#4700000
b1111111111110110 6
b1111111111110110 G
b1111111111110110 F
b1111111111110110 H
b1010 a
b1111111111110110 7
b1111111111110100 !
b1111111111110100 (
b1111111111110100 L
b1111111111110100 `
1#
#4800000
0#
#4900000
b1111111111111000 6
b1111111111111000 G
b1111111111111000 F
b1111111111111000 H
b1011 a
b1111111111111000 7
b1111111111110110 !
b1111111111110110 (
b1111111111110110 L
b1111111111110110 `
1#
#5000000
0#
#5100000
b1111111111111010 6
b1111111111111010 G
b1111111111111010 F
b1111111111111010 H
b1100 a
b1111111111111010 7
b1111111111111000 !
b1111111111111000 (
b1111111111111000 L
b1111111111111000 `
1#
#5200000
0#
#5300000
b1111111111111100 6
b1111111111111100 G
b1111111111111100 F
b1111111111111100 H
b1101 a
b1111111111111100 7
b1111111111111010 !
b1111111111111010 (
b1111111111111010 L
b1111111111111010 `
1#
#5400000
0#
#5500000
b1111111111111110 6
b1111111111111110 G
b1111111111111110 F
b1111111111111110 H
b1110 a
b1111111111111110 7
b1111111111111100 !
b1111111111111100 (
b1111111111111100 L
b1111111111111100 `
1#
#5600000
0#
#5700000
b0 6
b0 G
b0 F
b0 H
b0 E
b1111 a
b0 7
b1111111111111110 !
b1111111111111110 (
b1111111111111110 L
b1111111111111110 `
1#
#5800000
0#
#5900000
b11 -
b11 f
1C
1<
b110000 O
b11 D
b11 N
b11 R
b11 X
b1 :
b1 Y
b0 4
b0 Z
b10 6
b11 2
b11 d
b100 W
b1100000000 E
b1100000000 =
b10 G
b1000000110000000 ?
b1000000110000000 b
b10 F
b10 H
b0 a
b10 7
b0 !
b0 (
b0 L
b0 `
1#
#6000000
0#
#6100000
b1 .
b1 e
0)
b1111111110011100 8
b1 "
b1 &
b1 J
b1 V
b1 [
b110010 5
b110010 T
b1100100 A
b1 -
b1 f
b100 K
b100 P
b100 S
b110010 @
b1 0
b1 ]
b1 g
0+
0<
b10 D
b10 N
b10 R
b10 X
b0 :
b0 Y
b100 6
b100010 O
b10 M
b10 Q
b110010 *
b110010 ,
b1 2
b1 d
b11 3
b11 c
b1 W
b101100101100100 E
b101100101100100 =
b100 G
b10110010110010 ?
b10110010110010 b
b1101000 F
b100 H
b1 a
b100 7
b10 !
b10 (
b10 L
b10 `
1#
#6200000
0#
#6300000
1'
b0 .
b0 e
1)
b110010 8
b0 "
b0 &
b0 J
b0 V
b0 [
b0 5
b0 T
b1111111111001110 A
b0 -
b0 f
b1 K
b1 P
b1 S
b1111111111100111 @
b0 0
b0 ]
b0 g
1+
0/
0C
1B
b1 D
b1 N
b1 R
b1 X
b1111111111010100 6
b10111 O
b111 M
b111 Q
b1100111 *
b1111111111100111 ,
b0 2
b0 d
b111 3
b111 c
b110 W
b11100011001110 E
b11100011001110 =
b1111111111010100 G
b1101110001100111 ?
b1101110001100111 b
b1111111111010100 F
b1111111111010100 H
b10 a
b110 7
b100 !
b100 (
b100 L
b100 `
1#
#6400000
0#
#6500000
b0 8
b1111111111010110 6
b0 A
0'
b1111111111010110 G
b0 K
b0 P
b0 S
b0 @
1/
0B
b0 D
b0 N
b0 R
b0 X
b1 4
b1 Z
b1111111111010110 H
b0 O
b0 M
b0 Q
b0 *
b0 ,
b0 3
b0 c
b0 W
b0 =
b1111111111010110 F
b1000000000000000 E
b1010 a
b0 ?
b0 b
b1111111111010110 7
b1111111111010100 !
b1111111111010100 (
b1111111111010100 L
b1111111111010100 `
1#
#6600000
0#
#6700000
b1111111111011000 6
b1111111111011000 G
b1111111111011000 F
b1111111111011000 H
b1011 a
b1111111111011000 7
b1111111111010110 !
b1111111111010110 (
b1111111111010110 L
b1111111111010110 `
1#
#6800000
0#
#6900000
b1111111111011010 6
b1111111111011010 G
b1111111111011010 F
b1111111111011010 H
b1100 a
b1111111111011010 7
b1111111111011000 !
b1111111111011000 (
b1111111111011000 L
b1111111111011000 `
1#
#7000000
0#
#7100000
b1111111111011100 6
b1111111111011100 G
b1111111111011100 F
b1111111111011100 H
b1101 a
b1111111111011100 7
b1111111111011010 !
b1111111111011010 (
b1111111111011010 L
b1111111111011010 `
1#
#7200000
0#
#7300000
b1111111111011110 6
b1111111111011110 G
b1111111111011110 F
b1111111111011110 H
b1110 a
b1111111111011110 7
b1111111111011100 !
b1111111111011100 (
b1111111111011100 L
b1111111111011100 `
1#
#7400000
0#
#7500000
b1111111111100000 6
b1111111111100000 G
b1111111111100000 F
b1111111111100000 H
b1111 a
b1111111111100000 7
b1111111111011110 !
b1111111111011110 (
b1111111111011110 L
b1111111111011110 `
1#
#7600000
0#
#7700000
b1111111111100010 6
b1111111111100010 G
b1111111111100010 F
b1111111111100010 H
b0 a
b1111111111100010 7
b1111111111100000 !
b1111111111100000 (
b1111111111100000 L
b1111111111100000 `
1#
#7800000
0#
#7900000
b1111111111100100 6
b1111111111100100 G
b1111111111100100 F
b1111111111100100 H
b1 a
b1111111111100100 7
b1111111111100010 !
b1111111111100010 (
b1111111111100010 L
b1111111111100010 `
1#
#8000000
0#
#8100000
b1111111111100110 6
b1111111111100110 G
b1111111111100110 F
b1111111111100110 H
b10 a
b1111111111100110 7
b1111111111100100 !
b1111111111100100 (
b1111111111100100 L
b1111111111100100 `
1#
#8200000
0#
#8300000
b1111111111101000 6
b1111111111101000 G
b1111111111101000 F
b1111111111101000 H
b11 a
b1111111111101000 7
b1111111111100110 !
b1111111111100110 (
b1111111111100110 L
b1111111111100110 `
1#
#8400000
0#
#8500000
b1111111111101010 6
b1111111111101010 G
b1111111111101010 F
b1111111111101010 H
b100 a
b1111111111101010 7
b1111111111101000 !
b1111111111101000 (
b1111111111101000 L
b1111111111101000 `
1#
#8600000
0#
#8700000
b1111111111101100 6
b1111111111101100 G
b1111111111101100 F
b1111111111101100 H
b101 a
b1111111111101100 7
b1111111111101010 !
b1111111111101010 (
b1111111111101010 L
b1111111111101010 `
1#
#8800000
0#
#8900000
b1111111111101110 6
b1111111111101110 G
b1111111111101110 F
b1111111111101110 H
b110 a
b1111111111101110 7
b1111111111101100 !
b1111111111101100 (
b1111111111101100 L
b1111111111101100 `
1#
#9000000
0#
#9100000
b1111111111110000 6
b1111111111110000 G
b1111111111110000 F
b1111111111110000 H
b111 a
b1111111111110000 7
b1111111111101110 !
b1111111111101110 (
b1111111111101110 L
b1111111111101110 `
1#
#9200000
0#
#9300000
b1111111111110010 6
b1111111111110010 G
b1111111111110010 F
b1111111111110010 H
b1000 a
b1111111111110010 7
b1111111111110000 !
b1111111111110000 (
b1111111111110000 L
b1111111111110000 `
1#
#9400000
0#
#9500000
b1111111111110100 6
b1111111111110100 G
b1111111111110100 F
b1111111111110100 H
b1001 a
b1111111111110100 7
b1111111111110010 !
b1111111111110010 (
b1111111111110010 L
b1111111111110010 `
1#
#9600000
0#
#9700000
b1111111111110110 6
b1111111111110110 G
b1111111111110110 F
b1111111111110110 H
b1010 a
b1111111111110110 7
b1111111111110100 !
b1111111111110100 (
b1111111111110100 L
b1111111111110100 `
1#
#9800000
0#
#9900000
b1111111111111000 6
b1111111111111000 G
b1111111111111000 F
b1111111111111000 H
b1011 a
b1111111111111000 7
b1111111111110110 !
b1111111111110110 (
b1111111111110110 L
b1111111111110110 `
1#
